<PAMDataset>
  <PAMRasterBand band="1">
    <Metadata>
      <MDI key="STATISTICS_APPROXIMATE">YES</MDI>
      <MDI key="STATISTICS_MAXIMUM">1</MDI>
      <MDI key="STATISTICS_MEAN">0.25486796479062</MDI>
      <MDI key="STATISTICS_MINIMUM">0</MDI>
      <MDI key="STATISTICS_STDDEV">0.43578697240063</MDI>
      <MDI key="STATISTICS_VALID_PERCENT">54.64</MDI>
    </Metadata>
  </PAMRasterBand>
</PAMDataset>
